[
    {
        "id": 5,
        "name": "Conactive GmbH & Co. KG",
        "addresses": [
            {
                "street": "Bischof-Ulrich-Straße",
                "house_number": 2,
                "postal_code": 94032,
                "city": "Passau"
            },
            {
                "street": "Yorckstrasse",
                "house_number": 22,
                "postal_code": 93049,
                "city": "Regensburg"
            },
            {
                "street": "Donaustrasse",
                "house_number": 2,
                "postal_code": 94469,
                "city": "Deggendorf"
            }
        ]
    }
]